info face="MicrogrammaD-BoldExte" size=18 bold=0 italic=0 charset="" unicode=0 stretchH=100 smooth=1 aa=1 padding=0,0,0,0 spacing=3,3
common lineHeight=22 base=16 scaleW=256 scaleH=256 pages=1 packed=0
page id=0 file="lap-white.png"
chars count=95
char id=92 x=3 y=3 width=17 height=21 xoffset=-1 yoffset=0 xadvance=11 page=0 chnl=0 letter="\"
char id=47 x=23 y=3 width=16 height=21 xoffset=-1 yoffset=0 xadvance=11 page=0 chnl=0 letter="/"
char id=106 x=42 y=3 width=9 height=19 xoffset=-0 yoffset=2 xadvance=5 page=0 chnl=0 letter="j"
char id=36 x=54 y=3 width=20 height=18 xoffset=0 yoffset=1 xadvance=17 page=0 chnl=0 letter="$"
char id=124 x=77 y=3 width=8 height=18 xoffset=3 yoffset=3 xadvance=9 page=0 chnl=0 letter="|"
char id=123 x=88 y=3 width=11 height=17 xoffset=0 yoffset=2 xadvance=7 page=0 chnl=0 letter="{"
char id=125 x=102 y=3 width=11 height=17 xoffset=1 yoffset=2 xadvance=7 page=0 chnl=0 letter="}"
char id=40 x=116 y=3 width=10 height=17 xoffset=1 yoffset=2 xadvance=7 page=0 chnl=0 letter="("
char id=41 x=129 y=3 width=10 height=17 xoffset=1 yoffset=2 xadvance=7 page=0 chnl=0 letter=")"
char id=91 x=142 y=3 width=10 height=17 xoffset=1 yoffset=2 xadvance=7 page=0 chnl=0 letter="["
char id=93 x=155 y=3 width=10 height=17 xoffset=1 yoffset=2 xadvance=7 page=0 chnl=0 letter="]"
char id=37 x=168 y=3 width=28 height=16 xoffset=0 yoffset=2 xadvance=24 page=0 chnl=0 letter="%"
char id=38 x=199 y=3 width=22 height=16 xoffset=0 yoffset=2 xadvance=17 page=0 chnl=0 letter="&"
char id=81 x=224 y=3 width=21 height=16 xoffset=1 yoffset=2 xadvance=18 page=0 chnl=0 letter="Q"
char id=75 x=3 y=27 width=21 height=16 xoffset=1 yoffset=2 xadvance=17 page=0 chnl=0 letter="K"
char id=79 x=27 y=27 width=21 height=16 xoffset=1 yoffset=2 xadvance=18 page=0 chnl=0 letter="O"
char id=71 x=51 y=27 width=20 height=16 xoffset=1 yoffset=2 xadvance=17 page=0 chnl=0 letter="G"
char id=48 x=74 y=27 width=20 height=16 xoffset=1 yoffset=2 xadvance=17 page=0 chnl=0 letter="0"
char id=67 x=97 y=27 width=20 height=16 xoffset=1 yoffset=2 xadvance=17 page=0 chnl=0 letter="C"
char id=85 x=120 y=27 width=20 height=16 xoffset=1 yoffset=2 xadvance=17 page=0 chnl=0 letter="U"
char id=64 x=143 y=27 width=20 height=16 xoffset=1 yoffset=2 xadvance=17 page=0 chnl=0 letter="@"
char id=83 x=166 y=27 width=19 height=16 xoffset=0 yoffset=2 xadvance=16 page=0 chnl=0 letter="S"
char id=50 x=188 y=27 width=19 height=16 xoffset=1 yoffset=2 xadvance=17 page=0 chnl=0 letter="2"
char id=51 x=210 y=27 width=19 height=16 xoffset=1 yoffset=2 xadvance=17 page=0 chnl=0 letter="3"
char id=53 x=232 y=27 width=19 height=16 xoffset=1 yoffset=2 xadvance=17 page=0 chnl=0 letter="5"
char id=54 x=3 y=46 width=19 height=16 xoffset=1 yoffset=2 xadvance=17 page=0 chnl=0 letter="6"
char id=56 x=25 y=46 width=19 height=16 xoffset=1 yoffset=2 xadvance=17 page=0 chnl=0 letter="8"
char id=57 x=47 y=46 width=19 height=16 xoffset=1 yoffset=2 xadvance=17 page=0 chnl=0 letter="9"
char id=63 x=69 y=46 width=17 height=16 xoffset=0 yoffset=2 xadvance=13 page=0 chnl=0 letter="?"
char id=74 x=89 y=46 width=17 height=16 xoffset=0 yoffset=2 xadvance=14 page=0 chnl=0 letter="J"
char id=121 x=109 y=46 width=16 height=16 xoffset=-0 yoffset=6 xadvance=12 page=0 chnl=0 letter="y"
char id=98 x=128 y=46 width=16 height=16 xoffset=1 yoffset=2 xadvance=13 page=0 chnl=0 letter="b"
char id=100 x=147 y=46 width=16 height=16 xoffset=0 yoffset=2 xadvance=13 page=0 chnl=0 letter="d"
char id=103 x=166 y=46 width=16 height=16 xoffset=0 yoffset=6 xadvance=13 page=0 chnl=0 letter="g"
char id=112 x=185 y=46 width=16 height=16 xoffset=1 yoffset=6 xadvance=13 page=0 chnl=0 letter="p"
char id=113 x=204 y=46 width=16 height=16 xoffset=0 yoffset=6 xadvance=13 page=0 chnl=0 letter="q"
char id=102 x=223 y=46 width=11 height=16 xoffset=0 yoffset=2 xadvance=8 page=0 chnl=0 letter="f"
char id=87 x=3 y=65 width=30 height=15 xoffset=-0 yoffset=3 xadvance=25 page=0 chnl=0 letter="W"
char id=77 x=36 y=65 width=25 height=15 xoffset=1 yoffset=3 xadvance=22 page=0 chnl=0 letter="M"
char id=65 x=64 y=65 width=23 height=15 xoffset=-0 yoffset=3 xadvance=18 page=0 chnl=0 letter="A"
char id=86 x=90 y=65 width=22 height=15 xoffset=-0 yoffset=3 xadvance=17 page=0 chnl=0 letter="V"
char id=88 x=115 y=65 width=22 height=15 xoffset=-0 yoffset=3 xadvance=18 page=0 chnl=0 letter="X"
char id=89 x=140 y=65 width=21 height=15 xoffset=-0 yoffset=3 xadvance=17 page=0 chnl=0 letter="Y"
char id=78 x=164 y=65 width=21 height=15 xoffset=1 yoffset=3 xadvance=19 page=0 chnl=0 letter="N"
char id=68 x=188 y=65 width=20 height=15 xoffset=1 yoffset=3 xadvance=17 page=0 chnl=0 letter="D"
char id=52 x=211 y=65 width=20 height=15 xoffset=1 yoffset=3 xadvance=17 page=0 chnl=0 letter="4"
char id=66 x=234 y=65 width=19 height=15 xoffset=1 yoffset=3 xadvance=17 page=0 chnl=0 letter="B"
char id=72 x=3 y=83 width=19 height=15 xoffset=1 yoffset=3 xadvance=18 page=0 chnl=0 letter="H"
char id=80 x=25 y=83 width=19 height=15 xoffset=1 yoffset=3 xadvance=16 page=0 chnl=0 letter="P"
char id=82 x=47 y=83 width=19 height=15 xoffset=1 yoffset=3 xadvance=16 page=0 chnl=0 letter="R"
char id=84 x=69 y=83 width=19 height=15 xoffset=0 yoffset=3 xadvance=15 page=0 chnl=0 letter="T"
char id=90 x=91 y=83 width=18 height=15 xoffset=0 yoffset=3 xadvance=16 page=0 chnl=0 letter="Z"
char id=55 x=112 y=83 width=18 height=15 xoffset=1 yoffset=3 xadvance=17 page=0 chnl=0 letter="7"
char id=69 x=133 y=83 width=18 height=15 xoffset=1 yoffset=3 xadvance=15 page=0 chnl=0 letter="E"
char id=76 x=154 y=83 width=17 height=15 xoffset=1 yoffset=3 xadvance=13 page=0 chnl=0 letter="L"
char id=70 x=174 y=83 width=17 height=15 xoffset=1 yoffset=3 xadvance=14 page=0 chnl=0 letter="F"
char id=35 x=194 y=83 width=17 height=15 xoffset=1 yoffset=3 xadvance=17 page=0 chnl=0 letter="#"
char id=107 x=214 y=83 width=16 height=15 xoffset=1 yoffset=3 xadvance=12 page=0 chnl=0 letter="k"
char id=104 x=233 y=83 width=16 height=15 xoffset=1 yoffset=3 xadvance=13 page=0 chnl=0 letter="h"
char id=49 x=3 y=101 width=15 height=15 xoffset=2 yoffset=3 xadvance=17 page=0 chnl=0 letter="1"
char id=60 x=21 y=101 width=11 height=15 xoffset=1 yoffset=3 xadvance=9 page=0 chnl=0 letter="<"
char id=62 x=35 y=101 width=11 height=15 xoffset=1 yoffset=3 xadvance=9 page=0 chnl=0 letter=">"
char id=59 x=49 y=101 width=9 height=15 xoffset=1 yoffset=6 xadvance=6 page=0 chnl=0 letter=";"
char id=105 x=61 y=101 width=8 height=15 xoffset=1 yoffset=3 xadvance=5 page=0 chnl=0 letter="i"
char id=108 x=72 y=101 width=8 height=15 xoffset=1 yoffset=3 xadvance=5 page=0 chnl=0 letter="l"
char id=33 x=83 y=101 width=8 height=15 xoffset=1 yoffset=3 xadvance=6 page=0 chnl=0 letter="!"
char id=73 x=94 y=101 width=7 height=15 xoffset=1 yoffset=3 xadvance=6 page=0 chnl=0 letter="I"
char id=43 x=104 y=101 width=16 height=14 xoffset=2 yoffset=3 xadvance=17 page=0 chnl=0 letter="+"
char id=116 x=123 y=101 width=15 height=14 xoffset=0 yoffset=4 xadvance=11 page=0 chnl=0 letter="t"
char id=109 x=141 y=101 width=23 height=12 xoffset=1 yoffset=6 xadvance=20 page=0 chnl=0 letter="m"
char id=119 x=167 y=101 width=23 height=12 xoffset=-0 yoffset=6 xadvance=18 page=0 chnl=0 letter="w"
char id=118 x=193 y=101 width=17 height=12 xoffset=-0 yoffset=6 xadvance=12 page=0 chnl=0 letter="v"
char id=120 x=213 y=101 width=17 height=12 xoffset=0 yoffset=6 xadvance=13 page=0 chnl=0 letter="x"
char id=111 x=233 y=101 width=16 height=12 xoffset=0 yoffset=6 xadvance=13 page=0 chnl=0 letter="o"
char id=115 x=3 y=119 width=16 height=12 xoffset=0 yoffset=6 xadvance=13 page=0 chnl=0 letter="s"
char id=97 x=22 y=119 width=16 height=12 xoffset=0 yoffset=6 xadvance=13 page=0 chnl=0 letter="a"
char id=99 x=41 y=119 width=16 height=12 xoffset=0 yoffset=6 xadvance=13 page=0 chnl=0 letter="c"
char id=110 x=60 y=119 width=16 height=12 xoffset=1 yoffset=6 xadvance=13 page=0 chnl=0 letter="n"
char id=117 x=79 y=119 width=16 height=12 xoffset=1 yoffset=6 xadvance=13 page=0 chnl=0 letter="u"
char id=101 x=98 y=119 width=15 height=12 xoffset=0 yoffset=6 xadvance=13 page=0 chnl=0 letter="e"
char id=122 x=116 y=119 width=15 height=12 xoffset=0 yoffset=6 xadvance=11 page=0 chnl=0 letter="z"
char id=114 x=134 y=119 width=14 height=12 xoffset=1 yoffset=6 xadvance=11 page=0 chnl=0 letter="r"
char id=58 x=151 y=119 width=7 height=12 xoffset=1 yoffset=6 xadvance=6 page=0 chnl=0 letter=":"
char id=94 x=161 y=119 width=12 height=10 xoffset=0 yoffset=2 xadvance=9 page=0 chnl=0 letter="^"
char id=34 x=176 y=119 width=12 height=9 xoffset=1 yoffset=2 xadvance=10 page=0 chnl=0 letter="""
char id=42 x=191 y=119 width=10 height=9 xoffset=1 yoffset=3 xadvance=9 page=0 chnl=0 letter="*"
char id=44 x=204 y=119 width=9 height=9 xoffset=1 yoffset=12 xadvance=6 page=0 chnl=0 letter=","
char id=39 x=216 y=119 width=8 height=9 xoffset=1 yoffset=2 xadvance=5 page=0 chnl=0 letter="'"
char id=61 x=227 y=119 width=16 height=8 xoffset=2 yoffset=7 xadvance=17 page=0 chnl=0 letter="="
char id=96 x=3 y=134 width=9 height=8 xoffset=1 yoffset=1 xadvance=9 page=0 chnl=0 letter="`"
char id=126 x=15 y=134 width=13 height=7 xoffset=2 yoffset=2 xadvance=12 page=0 chnl=0 letter="~"
char id=46 x=31 y=134 width=7 height=7 xoffset=1 yoffset=11 xadvance=6 page=0 chnl=0 letter="."
char id=95 x=41 y=134 width=12 height=6 xoffset=0 yoffset=15 xadvance=9 page=0 chnl=0 letter="_"
char id=45 x=56 y=134 width=12 height=6 xoffset=0 yoffset=9 xadvance=8 page=0 chnl=0 letter="-"
char id=32 x=71 y=134 width=0 height=0 xoffset=4 yoffset=36 xadvance=5 page=0 chnl=0 letter="space"
kernings count=142
kerning first=75 second=121 amount=-1
kerning first=75 second=45 amount=-1
kerning first=79 second=88 amount=-1
kerning first=48 second=49 amount=-1
kerning first=50 second=55 amount=-1
kerning first=50 second=49 amount=-1
kerning first=51 second=55 amount=-1
kerning first=51 second=49 amount=-1
kerning first=53 second=55 amount=-1
kerning first=53 second=49 amount=-2
kerning first=54 second=55 amount=-1
kerning first=54 second=49 amount=-1
kerning first=56 second=55 amount=-1
kerning first=56 second=49 amount=-1
kerning first=57 second=55 amount=-1
kerning first=57 second=49 amount=-1
kerning first=121 second=44 amount=-1
kerning first=121 second=46 amount=-1
kerning first=102 second=102 amount=1
kerning first=102 second=116 amount=1
kerning first=87 second=103 amount=-1
kerning first=87 second=65 amount=-1
kerning first=87 second=84 amount=1
kerning first=87 second=59 amount=-1
kerning first=87 second=111 amount=-1
kerning first=87 second=97 amount=-1
kerning first=87 second=101 amount=-1
kerning first=87 second=58 amount=-1
kerning first=87 second=44 amount=-2
kerning first=87 second=46 amount=-1
kerning first=87 second=45 amount=-1
kerning first=65 second=121 amount=-1
kerning first=65 second=87 amount=-1
kerning first=65 second=86 amount=-2
kerning first=65 second=89 amount=-2
kerning first=65 second=84 amount=-2
kerning first=65 second=116 amount=-1
kerning first=65 second=119 amount=-1
kerning first=65 second=118 amount=-1
kerning first=86 second=103 amount=-1
kerning first=86 second=65 amount=-2
kerning first=86 second=84 amount=1
kerning first=86 second=59 amount=-1
kerning first=86 second=111 amount=-1
kerning first=86 second=97 amount=-1
kerning first=86 second=117 amount=-1
kerning first=86 second=101 amount=-1
kerning first=86 second=114 amount=-1
kerning first=86 second=58 amount=-1
kerning first=86 second=44 amount=-2
kerning first=86 second=46 amount=-2
kerning first=86 second=45 amount=-1
kerning first=88 second=121 amount=-1
kerning first=88 second=45 amount=-1
kerning first=89 second=103 amount=-2
kerning first=89 second=112 amount=-1
kerning first=89 second=65 amount=-2
kerning first=89 second=84 amount=1
kerning first=89 second=59 amount=-1
kerning first=89 second=118 amount=-1
kerning first=89 second=111 amount=-2
kerning first=89 second=97 amount=-2
kerning first=89 second=117 amount=-1
kerning first=89 second=101 amount=-2
kerning first=89 second=58 amount=-1
kerning first=89 second=44 amount=-3
kerning first=89 second=46 amount=-3
kerning first=89 second=45 amount=-2
kerning first=68 second=88 amount=-1
kerning first=52 second=55 amount=-1
kerning first=52 second=49 amount=-2
kerning first=80 second=65 amount=-1
kerning first=80 second=44 amount=-1
kerning first=80 second=46 amount=-1
kerning first=84 second=74 amount=-1
kerning first=84 second=121 amount=-2
kerning first=84 second=103 amount=-2
kerning first=84 second=87 amount=1
kerning first=84 second=65 amount=-2
kerning first=84 second=86 amount=1
kerning first=84 second=89 amount=1
kerning first=84 second=59 amount=-2
kerning first=84 second=119 amount=-2
kerning first=84 second=118 amount=-2
kerning first=84 second=111 amount=-2
kerning first=84 second=115 amount=-2
kerning first=84 second=97 amount=-2
kerning first=84 second=99 amount=-2
kerning first=84 second=117 amount=-2
kerning first=84 second=101 amount=-2
kerning first=84 second=114 amount=-2
kerning first=84 second=58 amount=-2
kerning first=84 second=44 amount=-2
kerning first=84 second=46 amount=-2
kerning first=84 second=45 amount=-2
kerning first=55 second=50 amount=-1
kerning first=55 second=51 amount=-1
kerning first=55 second=53 amount=-1
kerning first=55 second=54 amount=-1
kerning first=55 second=56 amount=-1
kerning first=55 second=52 amount=-1
kerning first=55 second=55 amount=-1
kerning first=55 second=49 amount=-1
kerning first=55 second=58 amount=-1
kerning first=55 second=44 amount=-3
kerning first=55 second=46 amount=-3
kerning first=76 second=121 amount=-1
kerning first=76 second=87 amount=-1
kerning first=76 second=65 amount=1
kerning first=76 second=86 amount=-1
kerning first=76 second=89 amount=-3
kerning first=76 second=84 amount=-2
kerning first=76 second=45 amount=1
kerning first=70 second=65 amount=-1
kerning first=107 second=103 amount=-1
kerning first=107 second=45 amount=-1
kerning first=49 second=48 amount=-2
kerning first=49 second=50 amount=-2
kerning first=49 second=51 amount=-2
kerning first=49 second=53 amount=-2
kerning first=49 second=54 amount=-2
kerning first=49 second=56 amount=-2
kerning first=49 second=57 amount=-2
kerning first=49 second=52 amount=-2
kerning first=49 second=55 amount=-2
kerning first=49 second=49 amount=-3
kerning first=49 second=44 amount=-2
kerning first=49 second=46 amount=-2
kerning first=119 second=44 amount=-1
kerning first=119 second=46 amount=-1
kerning first=118 second=44 amount=-1
kerning first=118 second=46 amount=-1
kerning first=111 second=84 amount=-2
kerning first=110 second=84 amount=-2
kerning first=114 second=44 amount=-1
kerning first=114 second=46 amount=-2
kerning first=44 second=49 amount=-3
kerning first=46 second=49 amount=-3
kerning first=45 second=87 amount=-1
kerning first=45 second=86 amount=-1
kerning first=45 second=89 amount=-2
kerning first=45 second=84 amount=-2
